﻿{
  "dependencies": {
    "Microsoft.Azure.Mobile.Client": "3.1.0",
    "Microsoft.Azure.Mobile.Client.SQLiteStore": "3.1.0",
    "Microsoft.Bcl": "1.1.10",
    "Microsoft.Bcl.Build": "1.0.21",
    "Microsoft.NETCore.UniversalWindowsPlatform": "5.2.2",
    "Newtonsoft.Json": "9.0.1",
    "PCLCrypto": "2.0.147",
    "Refractored.MvvmHelpers": "1.2.2",
    "Xamarin.Auth": "1.3.2.1",
    "Xamarin.Forms": "2.3.3.180"
  },
  "frameworks": {
    "uap10.0": {}
  },
  "runtimes": {
    "win10-arm": {},
    "win10-arm-aot": {},
    "win10-x86": {},
    "win10-x86-aot": {},
    "win10-x64": {},
    "win10-x64-aot": {}
  }
}